{
  "config": {
    "target": "http://localhost:5900",
    "phases": [{ "duration": 120, "arrivalRate": 15 }],
    "http": { "timeout": 60 },
    "payload": [
      {
        "path": "./objects.csv",
        "fields": ["id"]
      },
      {
        "path": "./laymans.csv",
        "fields": ["layman"]
      }
    ]
  },
  "variables": {},
  "scenarios": [
    {
      "name": "layman",
      "flow": [
        {
          "post": {
            "url": "/user/login",
            "json": { "username": "{{layman}}", "password": "qqq" },
            "capture": { "json": "$.name", "as": "name" }
          }
        },
        { "think": 5 },
        {
          "get": {
            "url": "/user/get_medication"
          }
        },
        { "think": 10 },

        {
          "get": {
            "url": "/solr/le-search-labels-cs/select?indent=on&q=((enc_title:s*)^2%20(enc_title:S*)^2%20OR%20(enc_title:S*)^2%20OR%20enc_title:*S*%20OR%20enc_title:*s*%20OR%20enc_title:*S*%20OR%20enc_title:*s*)&wt=json"
          }
        },
        {
          "get": {
            "url": "/solr/le-search-labels-cs/select?indent=on&q=((enc_title:s*)^2%20(enc_title:S*)^2%20OR%20(enc_title:S*)^2%20OR%20enc_title:*S*%20OR%20enc_title:*s*%20OR%20enc_title:*S*%20OR%20enc_title:*s*)&wt=json"
          }
        },
        { "think": 5 },
        {
          "post": {
            "url": "/user/update_medicament",
            "json": {
              "medicament": {
                "key": "1",
                "nextDose": null,
                "enc_title": "DECAPEPTYL 0,1 MG ",
                "_type": "medicinalProduct",
                "_id": "http://linked.opendata.cz/resource/sukl/medicinal-product/DECAPEPTYL-0-1-MG",
                "howOften": "1"
              }
            }
          }
        }
      ]
    },
    {
      "name": "non-registered",
      "flow": [
        {
          "get": {
            "url": "{{ id }}"
          }
        },
        { "think": 5 },
        {
          "get": {
            "url": "/solr/le-search-labels-cs/select?indent=on&q=((enc_title:s*)^2%20(enc_title:S*)^2%20OR%20(enc_title:S*)^2%20OR%20enc_title:*S*%20OR%20enc_title:*s*%20OR%20enc_title:*S*%20OR%20enc_title:*s*)&wt=json"
          }
        },
        { "think": 10 },

        {
          "get": {
            "url": "/solr/le-search-labels-cs/select?indent=on&q=((enc_title:s*)^2%20(enc_title:S*)^2%20OR%20(enc_title:S*)^2%20OR%20enc_title:*S*%20OR%20enc_title:*s*%20OR%20enc_title:*S*%20OR%20enc_title:*s*)&wt=json"
          }
        },
        { "think": 5 },

        {
          "get": {
            "url": "{{ id }}"
          }
        }
      ]
    }
  ]
}
