// Jest Snapshot v1, https://goo.gl/fbAQLP

exports[`HomeDescription renders correctly 1`] = `
<div>
  <div>
    <div>
      Nevíte, jak začít s Lékovou encyklopedií pracovat? Zadejte do vyhledávacího políčka text a aplikace Vám sama začne našeptávat. Pak buď vyberete z našeptávače nebo můžete vyhledávat pomocí tlačítka hledat. Co můžete v Lékové encyklopedii najít? Účinné látky jako
       
      <a
        href="/Ingredient/http%3A%2F%2Flinked.opendata.cz%2Fresource%2Fdrug-encyclopedia%2Fingredient%2FM0010965"
        onClick={[Function]}
      >
        Ibuprofen
      </a>
      ,
       
      <a
        href="/Ingredient/http%3A%2F%2Flinked.opendata.cz%2Fresource%2Fdrug-encyclopedia%2Fingredient%2FM0013595"
        onClick={[Function]}
      >
        Methotrexát
      </a>
      ,
       
      <a
        href="/Ingredient/http%3A%2F%2Flinked.opendata.cz%2Fresource%2Fdrug-encyclopedia%2Fingredient%2FM0029425"
        onClick={[Function]}
      >
        Simvastatin
      </a>
      ... Léčivé přípravky jako
       
      <a
        href="/MedicinalProduct/http%3A%2F%2Flinked.opendata.cz%2Fresource%2Fsukl%2Fmedicinal-product%2FANOPYRIN-100-MG"
        onClick={[Function]}
      >
        ANOPYRIN 100 MG
      </a>
      ,
       
      <a
        href="/MedicinalProduct/http%3A%2F%2Flinked.opendata.cz%2Fresource%2Fsukl%2Fmedicinal-product%2FDOPEGYT"
        onClick={[Function]}
      >
        DOPEGYT
      </a>
      . Nálezy jako
       
      <a
        href="/DiseaseOrFinding/http%3A%2F%2Flinked.opendata.cz%2Fresource%2Fndfrt%2Fdisease%2FN0000002278"
        onClick={[Function]}
      >
        bolest
      </a>
      ,
       
      <a
        href="/DiseaseOrFinding/http%3A%2F%2Flinked.opendata.cz%2Fresource%2Fndfrt%2Fdisease%2FN0000002858"
        onClick={[Function]}
      >
        sluneční spáleniny
      </a>
       
      a k nim příslušné účinné látky. A spoustu dalších zajímavých informací v přehledné podobě. Můžete také zkontrolovat, zda mezi několika léčivými přípravky a účinnými látkami neexistují potenciální
       
      <a
        href="/Interactions"
        onClick={[Function]}
      >
        interakce
      </a>
      .
      <div />
      Registrovaní uživatelé také mohou využít dalších funkcí. Laici v oblasti zdravotnictví si zde mohou zaznamenávat a spravovat svou medikaci, expertům v oblasti zdravotnictví se bude zaznamenávat historie vyhledávání a oni si tak budou moci jednodušeji osvěžit potřebné informace.
    </div>
    <div
      className="home-title"
    >
      Zdroje dat
    </div>
    <div>
      Základním zdrojem dat o dostupných léčivých přípravcích v ČR jsou pro Lékovou encyklopedii data
       
      <a
        href="http://www.sukl.cz/"
      >
        Státního ústavu pro kontrolu léčiv (SÚKL).
      </a>
       
      Tato data zahrnují informace o velikostech balení, ATC skupinách, účinných látkách atd. V neposlední řadě také SÚKL poskytuje tzv. Souhrné údaje o léčivých přípravcích (SPC), které jsou ve formě dokumentů dostupné ke všem registrovaným léčivým přípravkům. Další data, která aplikaci používá a která jsou vybrány na základě požadavků lékařů, pochází z následujících datových zdrojů:
      <div
        className="row drug-row col-xs-12"
      />
      <ul>
        <li>
          <a
            href="https://www.ncbi.nlm.nih.gov/mesh"
          >
            MeSH (Medical Subject Headings)
          </a>
           
          - poměrně rozsáhlý slovník pojmů primárně sloužící pro anotaci vědeckých článků, který je přeložen částečně do češtiny.
        </li>
        <li>
          <a
            href="https://nlk.cz/2018/01/mesh-cz-2018/"
          >
            Czech translation of MeSH
          </a>
           
          - český překlad MeSH zajištuje Národní lékařská knihovna.
        </li>
        <li>
          <a
            href="https://www.nlm.nih.gov/research/umls/sourcereleasedocs/current/NDFRT/"
          >
            NDF-RT (National Drug File - Reference Terminology
          </a>
           
          - obsahuje data o indikacích, kontraindikacích, interakcích apod.
        </li>
        <li>
          <a
            href="https://www.drugbank.ca/"
          >
            DrugBank
          </a>
           - databáze obsahující informace o interakcích a především chemických vlastnostech.
        </li>
        <li>
          <a
            href="https://www.meddra.org/"
          >
            MedDRA
          </a>
           - slovník pro regulatorní účely především pro zápis nežádoucích účinků léčiv.
        </li>
        <li>
          <a
            href="https://dailymed.nlm.nih.gov/dailymed/index.cfm"
          >
            FDA SPL
          </a>
           
          - částečně strukturované popisy léčivých přípravků v USA.
        </li>
      </ul>
    </div>
  </div>
</div>
`;
