// Jest Snapshot v1, https://goo.gl/fbAQLP

exports[`MedicinalProduct renders cheapest packages when param is in url 1`] = `
<div>
  <div
    className="row col-xs-12 title"
  >
    ANOPYRIN 100 MG 
  </div>
  <div
    className="row col-xs-12 bold title-type"
  >
    Léčivé přípravky
  </div>
  <div
    className="route-buttons col-xs-12 row drug-row"
  >
    <button
      className="btn-group btn btn-primary vcenter button-router active"
      onClick={[Function]}
      type="radio"
    >
      Detail
    </button>
    <button
      className="btn-group btn btn-primary vcenter button-router"
      onClick={[Function]}
      type="radio"
    >
      Příbalový leták
    </button>
    <button
      className="btn-group btn btn-primary vcenter button-router"
      onClick={[Function]}
      type="radio"
    >
      SPC
    </button>
    <button
      className="btn-group btn btn-primary vcenter button-router"
      onClick={[Function]}
      type="radio"
    >
      Levné alternativy
    </button>
  </div>
</div>
`;

exports[`MedicinalProduct renders correctly when document is loaded 1`] = `
<div>
  <div
    className="row col-xs-12 title"
  >
    ANOPYRIN 100 MG 
  </div>
  <div
    className="row col-xs-12 bold title-type"
  >
    Léčivé přípravky
  </div>
  <div
    className="route-buttons col-xs-12 row drug-row"
  >
    <button
      className="btn-group btn btn-primary vcenter button-router active"
      onClick={[Function]}
      type="radio"
    >
      Detail
    </button>
    <button
      className="btn-group btn btn-primary vcenter button-router"
      onClick={[Function]}
      type="radio"
    >
      Příbalový leták
    </button>
    <button
      className="btn-group btn btn-primary vcenter button-router"
      onClick={[Function]}
      type="radio"
    >
      SPC
    </button>
    <button
      className="btn-group btn btn-primary vcenter button-router"
      onClick={[Function]}
      type="radio"
    >
      Levné alternativy
    </button>
  </div>
  <div>
    <div
      className="col-xs-12 col-md-6 important-prop"
    >
      <div
        className="basic-label"
      >
        Indikace
      </div>
      <div
        className="display-linebreak normal-text"
      >
        -    Nestabilní angina pectoris - jako doplněk standardní terapie.
-    Akutní infarkt myokardu - jako součást standardní terapie.
-    Prevence reinfarktu.
-    Po arteriálních cévně chirurgických nebo intervenčních výkonech (např. po aortokoronárním
bypassu, při perkutánní transluminální koronární angioplastice).
-    Sekundární prevence tranzitorní ischemické ataky a mozkového infarktu.
Upozornění:
Tento přípravek není určen k terapii bolestivých stavů.
Tento přípravek není určen k použití u dětí a dospívajících do 18 let
      </div>
    </div>
    <div
      className="col-xs-12 col-md-6 important-prop"
    >
      <div
        className="basic-label"
      >
        Indikační skupina
      </div>
      <div
        className="display-linebreak normal-text"
      >
        Anticoagulantia (fibrinolytica, antifibrinol.)
      </div>
    </div>
    <div
      className="row"
    >
      <div
        className="ingredient-list col-xs-12 col-md-6"
      >
        <div
          className="bold list-label"
        >
          Aktivní látky
        </div>
        <div
          className="list list-with-sublist"
        >
          <div
            className="ingredient"
          >
            <div
              className="display-linebreak list-text"
            >
              <a
                href="/Ingredient/http%3A%2F%2Flinked.opendata.cz%2Fresource%2Fdrug-encyclopedia%2Fingredient%2FM0001864"
                onClick={[Function]}
              >
                Aspirin
              </a>
            </div>
            <div
              className="sublist-container"
            >
              <div
                className="sublist-label"
              >
                 
                Farmakologické účinky
                :
              </div>
              <div
                className="sublist"
              >
                <div
                  className=""
                >
                  <div
                    className="display-linebreak "
                  >
                    <a
                      href="/PharmacologicalAction/http%3A%2F%2Flinked.opendata.cz%2Fresource%2Fdrug-encyclopedia%2Fpharmacological-action%2FM0001335"
                      onClick={[Function]}
                    >
                      Antiflogistika nesteroidní
                    </a>
                  </div>
                </div>
                <div
                  className=""
                >
                  <div
                    className="display-linebreak "
                  >
                    <a
                      href="/PharmacologicalAction/http%3A%2F%2Flinked.opendata.cz%2Fresource%2Fdrug-encyclopedia%2Fpharmacological-action%2FM0028037"
                      onClick={[Function]}
                    >
                      Antipyretika
                    </a>
                  </div>
                </div>
                <div
                  className=""
                >
                  <div
                    className="display-linebreak "
                  >
                    <a
                      href="/PharmacologicalAction/http%3A%2F%2Flinked.opendata.cz%2Fresource%2Fdrug-encyclopedia%2Fpharmacological-action%2FM0008434"
                      onClick={[Function]}
                    >
                      Fibrinolytika
                    </a>
                  </div>
                </div>
                <div
                  className=""
                >
                  <div
                    className="display-linebreak "
                  >
                    <a
                      href="/PharmacologicalAction/http%3A%2F%2Flinked.opendata.cz%2Fresource%2Fdrug-encyclopedia%2Fpharmacological-action%2FM0017012"
                      onClick={[Function]}
                    >
                      Inhibitory agregace trombocytů
                    </a>
                  </div>
                </div>
                <div
                  className=""
                >
                  <div
                    className="display-linebreak "
                  >
                    <a
                      href="/PharmacologicalAction/http%3A%2F%2Flinked.opendata.cz%2Fresource%2Fdrug-encyclopedia%2Fpharmacological-action%2FM0025664"
                      onClick={[Function]}
                    >
                      Inhibitory cyklooxygenázy
                    </a>
                  </div>
                </div>
              </div>
            </div>
            <div
              className="sublist-container"
            >
              <div
                className="sublist-label"
              >
                 
                Použití v těhotenství
                :
              </div>
              <div
                className="sublist"
              />
            </div>
          </div>
        </div>
      </div>
      <div
        className="linked-list col-xs-12 col-md-6"
      >
        <div
          className="bold list-label"
        >
          ATC koncepty
        </div>
        <div
          className="list"
        >
          <div
            className="linked-item"
          >
            <div
              className="display-linebreak list-text"
            >
              <a
                href="/ATCConcept/http%3A%2F%2Flinked.opendata.cz%2Fresource%2Fatc%2FB"
                onClick={[Function]}
              >
                B Krev a krvetvorné orgány
              </a>
            </div>
          </div>
          <div
            className="linked-item"
          >
            <div
              className="display-linebreak list-text"
            >
              <a
                href="/ATCConcept/http%3A%2F%2Flinked.opendata.cz%2Fresource%2Fatc%2FB01"
                onClick={[Function]}
              >
                B01 Antikoagulancia, antitrombotika
              </a>
            </div>
          </div>
          <div
            className="linked-item"
          >
            <div
              className="display-linebreak list-text"
            >
              <a
                href="/ATCConcept/http%3A%2F%2Flinked.opendata.cz%2Fresource%2Fatc%2FB01A"
                onClick={[Function]}
              >
                B01A Antikoagulancia, antitrombotika
              </a>
            </div>
          </div>
          <div
            className="linked-item"
          >
            <div
              className="display-linebreak list-text"
            >
              <a
                href="/ATCConcept/http%3A%2F%2Flinked.opendata.cz%2Fresource%2Fatc%2FB01AC"
                onClick={[Function]}
              >
                B01AC Antiagregancia kromě heparinu
              </a>
            </div>
          </div>
          <div
            className="linked-item"
          >
            <div
              className="display-linebreak list-text"
            >
              <a
                href="/ATCConcept/http%3A%2F%2Flinked.opendata.cz%2Fresource%2Fatc%2FB01AC06"
                onClick={[Function]}
              >
                B01AC06 Kyselina acetylsalicylová
              </a>
            </div>
          </div>
        </div>
      </div>
    </div>
    <div
      className="col-xs-12"
    >
      <div
        className="table-label"
      >
        Balení léčivého přípravku
      </div>
      <div
        className="table-container"
      >
        <table
          className="drug-table packaging-table"
        >
          <thead>
            <tr>
              <td
                className="table-prop-label"
                colSpan={1}
              >
                Na trhu
              </td>
              <td
                className="table-prop-label"
                colSpan={1}
              >
                Název
              </td>
              <td
                className="table-prop-label"
                colSpan={1}
              >
                ATC koncepty
              </td>
              <td
                className="table-prop-label"
                colSpan={1}
              >
                Velikost balení
              </td>
              <td
                className="table-prop-label"
                colSpan={1}
              >
                Síla
              </td>
              <td
                className="table-prop-label"
                colSpan={1}
              >
                Cena
              </td>
              <td
                className="table-prop-label"
                colSpan={1}
              >
                Úhrada
              </td>
              <td
                className="table-prop-label"
                colSpan={1}
              >
                Podání
              </td>
            </tr>
          </thead>
          <tbody>
            <tr
              className=""
            >
              <td
                className="not-active"
                colSpan={1}
              >
                <div
                  className="display-linebreak "
                >
                  <a
                    href="/MedicinalProductPackaging/http%3A%2F%2Flinked.opendata.cz%2Fresource%2Fsukl%2Fmedicinal-product-packaging%2F0099295"
                    onClick={[Function]}
                  >
                    Ano
                  </a>
                </div>
              </td>
              <td
                className="left"
                colSpan={1}
              >
                <div
                  className="display-linebreak "
                >
                  <a
                    href="/MedicinalProductPackaging/http%3A%2F%2Flinked.opendata.cz%2Fresource%2Fsukl%2Fmedicinal-product-packaging%2F0099295"
                    onClick={[Function]}
                  >
                    ANOPYRIN 100 MG TBL NOB 2X10X100MG
                  </a>
                </div>
              </td>
              <td
                className=""
                colSpan={1}
              >
                <div
                  className="display-linebreak "
                >
                  <a
                    href="/ATCConcept/http%3A%2F%2Flinked.opendata.cz%2Fresource%2Fatc%2FB01AC06"
                    onClick={[Function]}
                  >
                    B01AC06
                  </a>
                </div>
              </td>
              <td
                className="not-active"
                colSpan={1}
              >
                <div
                  className="display-linebreak "
                >
                  <a
                    href="/MedicinalProductPackaging/http%3A%2F%2Flinked.opendata.cz%2Fresource%2Fsukl%2Fmedicinal-product-packaging%2F0099295"
                    onClick={[Function]}
                  >
                    2X10
                  </a>
                </div>
              </td>
              <td
                className="not-active"
                colSpan={1}
              >
                <div
                  className="display-linebreak "
                >
                  <a
                    href="/MedicinalProductPackaging/http%3A%2F%2Flinked.opendata.cz%2Fresource%2Fsukl%2Fmedicinal-product-packaging%2F0099295"
                    onClick={[Function]}
                  >
                    100MG
                  </a>
                </div>
              </td>
              <td
                className="not-active"
                colSpan={1}
              >
                <div
                  className="display-linebreak "
                >
                  <a
                    href="/PriceSpecification/http%3A%2F%2Flinked.opendata.cz%2Fresource%2Fsukl%2Fmedicinal-product-packaging%2F0099295%2Fprice%2F2016-09-01"
                    onClick={[Function]}
                  >
                    35.05
                  </a>
                </div>
              </td>
              <td
                className="not-active"
                colSpan={1}
              >
                <div
                  className="display-linebreak "
                >
                  <a
                    href="/PriceSpecification/http%3A%2F%2Flinked.opendata.cz%2Fresource%2Fsukl%2Fmedicinal-product-packaging%2F0099295%2Freimbursement%2F2016-09-01"
                    onClick={[Function]}
                  >
                    11.73
                  </a>
                </div>
              </td>
              <td
                className="not-active"
                colSpan={1}
              >
                <div
                  className="display-linebreak "
                >
                  <a
                    href="/MedicinalProductPackaging/http%3A%2F%2Flinked.opendata.cz%2Fresource%2Fsukl%2Fmedicinal-product-packaging%2F0099295"
                    onClick={[Function]}
                  >
                    Perorální podání
                  </a>
                </div>
              </td>
            </tr>
            <tr
              className=""
            >
              <td
                className="not-active"
                colSpan={1}
              >
                <div
                  className="display-linebreak "
                >
                  <a
                    href="/MedicinalProductPackaging/http%3A%2F%2Flinked.opendata.cz%2Fresource%2Fsukl%2Fmedicinal-product-packaging%2F0125114"
                    onClick={[Function]}
                  >
                    Ano
                  </a>
                </div>
              </td>
              <td
                className="left"
                colSpan={1}
              >
                <div
                  className="display-linebreak "
                >
                  <a
                    href="/MedicinalProductPackaging/http%3A%2F%2Flinked.opendata.cz%2Fresource%2Fsukl%2Fmedicinal-product-packaging%2F0125114"
                    onClick={[Function]}
                  >
                    ANOPYRIN 100 MG TBL NOB 3X20X100MG
                  </a>
                </div>
              </td>
              <td
                className=""
                colSpan={1}
              >
                <div
                  className="display-linebreak "
                >
                  <a
                    href="/ATCConcept/http%3A%2F%2Flinked.opendata.cz%2Fresource%2Fatc%2FB01AC06"
                    onClick={[Function]}
                  >
                    B01AC06
                  </a>
                </div>
              </td>
              <td
                className="not-active"
                colSpan={1}
              >
                <div
                  className="display-linebreak "
                >
                  <a
                    href="/MedicinalProductPackaging/http%3A%2F%2Flinked.opendata.cz%2Fresource%2Fsukl%2Fmedicinal-product-packaging%2F0125114"
                    onClick={[Function]}
                  >
                    3X20
                  </a>
                </div>
              </td>
              <td
                className="not-active"
                colSpan={1}
              >
                <div
                  className="display-linebreak "
                >
                  <a
                    href="/MedicinalProductPackaging/http%3A%2F%2Flinked.opendata.cz%2Fresource%2Fsukl%2Fmedicinal-product-packaging%2F0125114"
                    onClick={[Function]}
                  >
                    100MG
                  </a>
                </div>
              </td>
              <td
                className="not-active"
                colSpan={1}
              >
                <div
                  className="display-linebreak "
                >
                  <a
                    href="/PriceSpecification/http%3A%2F%2Flinked.opendata.cz%2Fresource%2Fsukl%2Fmedicinal-product-packaging%2F0125114%2Fprice%2F2016-09-01"
                    onClick={[Function]}
                  >
                    80.46
                  </a>
                </div>
              </td>
              <td
                className="not-active"
                colSpan={1}
              >
                <div
                  className="display-linebreak "
                >
                  <a
                    href="/PriceSpecification/http%3A%2F%2Flinked.opendata.cz%2Fresource%2Fsukl%2Fmedicinal-product-packaging%2F0125114%2Freimbursement%2F2016-09-01"
                    onClick={[Function]}
                  >
                    35.18
                  </a>
                </div>
              </td>
              <td
                className="not-active"
                colSpan={1}
              >
                <div
                  className="display-linebreak "
                >
                  <a
                    href="/MedicinalProductPackaging/http%3A%2F%2Flinked.opendata.cz%2Fresource%2Fsukl%2Fmedicinal-product-packaging%2F0125114"
                    onClick={[Function]}
                  >
                    Perorální podání
                  </a>
                </div>
              </td>
            </tr>
            <tr
              className=""
            >
              <td
                className="not-active"
                colSpan={1}
              >
                <div
                  className="display-linebreak "
                >
                  <a
                    href="/MedicinalProductPackaging/http%3A%2F%2Flinked.opendata.cz%2Fresource%2Fsukl%2Fmedicinal-product-packaging%2F0203564"
                    onClick={[Function]}
                  >
                    Ano
                  </a>
                </div>
              </td>
              <td
                className="left"
                colSpan={1}
              >
                <div
                  className="display-linebreak "
                >
                  <a
                    href="/MedicinalProductPackaging/http%3A%2F%2Flinked.opendata.cz%2Fresource%2Fsukl%2Fmedicinal-product-packaging%2F0203564"
                    onClick={[Function]}
                  >
                    ANOPYRIN 100 MG TBL NOB 100X100MG
                  </a>
                </div>
              </td>
              <td
                className=""
                colSpan={1}
              >
                <div
                  className="display-linebreak "
                >
                  <a
                    href="/ATCConcept/http%3A%2F%2Flinked.opendata.cz%2Fresource%2Fatc%2FB01AC06"
                    onClick={[Function]}
                  >
                    B01AC06
                  </a>
                </div>
              </td>
              <td
                className="not-active"
                colSpan={1}
              >
                <div
                  className="display-linebreak "
                >
                  <a
                    href="/MedicinalProductPackaging/http%3A%2F%2Flinked.opendata.cz%2Fresource%2Fsukl%2Fmedicinal-product-packaging%2F0203564"
                    onClick={[Function]}
                  >
                    100
                  </a>
                </div>
              </td>
              <td
                className="not-active"
                colSpan={1}
              >
                <div
                  className="display-linebreak "
                >
                  <a
                    href="/MedicinalProductPackaging/http%3A%2F%2Flinked.opendata.cz%2Fresource%2Fsukl%2Fmedicinal-product-packaging%2F0203564"
                    onClick={[Function]}
                  >
                    100MG
                  </a>
                </div>
              </td>
              <td
                className="not-active"
                colSpan={1}
              >
                <div
                  className="display-linebreak "
                >
                  <a
                    href="/PriceSpecification/http%3A%2F%2Flinked.opendata.cz%2Fresource%2Fsukl%2Fmedicinal-product-packaging%2F0203564%2Fprice%2F2016-09-01"
                    onClick={[Function]}
                  >
                    71.9
                  </a>
                </div>
              </td>
              <td
                className="not-active"
                colSpan={1}
              >
                <div
                  className="display-linebreak "
                >
                  <a
                    href="/PriceSpecification/http%3A%2F%2Flinked.opendata.cz%2Fresource%2Fsukl%2Fmedicinal-product-packaging%2F0203564%2Freimbursement%2F2016-09-01"
                    onClick={[Function]}
                  >
                    58.62
                  </a>
                </div>
              </td>
              <td
                className="not-active"
                colSpan={1}
              >
                <div
                  className="display-linebreak "
                >
                  <a
                    href="/MedicinalProductPackaging/http%3A%2F%2Flinked.opendata.cz%2Fresource%2Fsukl%2Fmedicinal-product-packaging%2F0203564"
                    onClick={[Function]}
                  >
                    Perorální podání
                  </a>
                </div>
              </td>
            </tr>
            <tr
              className="not-in-bussines"
            >
              <td
                className="not-active"
                colSpan={1}
              >
                <div
                  className="display-linebreak "
                >
                  <a
                    href="/MedicinalProductPackaging/http%3A%2F%2Flinked.opendata.cz%2Fresource%2Fsukl%2Fmedicinal-product-packaging%2F0200213"
                    onClick={[Function]}
                  >
                    Ne
                  </a>
                </div>
              </td>
              <td
                className="left"
                colSpan={1}
              >
                <div
                  className="display-linebreak "
                >
                  <a
                    href="/MedicinalProductPackaging/http%3A%2F%2Flinked.opendata.cz%2Fresource%2Fsukl%2Fmedicinal-product-packaging%2F0200213"
                    onClick={[Function]}
                  >
                    ANOPYRIN 100 MG TBL NOB 1X20X100MG
                  </a>
                </div>
              </td>
              <td
                className=""
                colSpan={1}
              >
                <div
                  className="display-linebreak "
                >
                  <a
                    href="/ATCConcept/http%3A%2F%2Flinked.opendata.cz%2Fresource%2Fatc%2FB01AC06"
                    onClick={[Function]}
                  >
                    B01AC06
                  </a>
                </div>
              </td>
              <td
                className="not-active"
                colSpan={1}
              >
                <div
                  className="display-linebreak "
                >
                  <a
                    href="/MedicinalProductPackaging/http%3A%2F%2Flinked.opendata.cz%2Fresource%2Fsukl%2Fmedicinal-product-packaging%2F0200213"
                    onClick={[Function]}
                  >
                    1X20
                  </a>
                </div>
              </td>
              <td
                className="not-active"
                colSpan={1}
              >
                <div
                  className="display-linebreak "
                >
                  <a
                    href="/MedicinalProductPackaging/http%3A%2F%2Flinked.opendata.cz%2Fresource%2Fsukl%2Fmedicinal-product-packaging%2F0200213"
                    onClick={[Function]}
                  >
                    100MG
                  </a>
                </div>
              </td>
              <td
                className="not-active"
                colSpan={1}
              >
                <div
                  className="display-linebreak "
                >
                  
                </div>
              </td>
              <td
                className="not-active"
                colSpan={1}
              >
                <div
                  className="display-linebreak "
                >
                  
                </div>
              </td>
              <td
                className="not-active"
                colSpan={1}
              >
                <div
                  className="display-linebreak "
                >
                  <a
                    href="/MedicinalProductPackaging/http%3A%2F%2Flinked.opendata.cz%2Fresource%2Fsukl%2Fmedicinal-product-packaging%2F0200213"
                    onClick={[Function]}
                  >
                    Perorální podání
                  </a>
                </div>
              </td>
            </tr>
            <tr
              className="not-in-bussines"
            >
              <td
                className="not-active"
                colSpan={1}
              >
                <div
                  className="display-linebreak "
                >
                  <a
                    href="/MedicinalProductPackaging/http%3A%2F%2Flinked.opendata.cz%2Fresource%2Fsukl%2Fmedicinal-product-packaging%2F0151142"
                    onClick={[Function]}
                  >
                    Ne
                  </a>
                </div>
              </td>
              <td
                className="left"
                colSpan={1}
              >
                <div
                  className="display-linebreak "
                >
                  <a
                    href="/MedicinalProductPackaging/http%3A%2F%2Flinked.opendata.cz%2Fresource%2Fsukl%2Fmedicinal-product-packaging%2F0151142"
                    onClick={[Function]}
                  >
                    ANOPYRIN 100 MG TBL NOB 30X100MG
                  </a>
                </div>
              </td>
              <td
                className=""
                colSpan={1}
              >
                <div
                  className="display-linebreak "
                >
                  <a
                    href="/ATCConcept/http%3A%2F%2Flinked.opendata.cz%2Fresource%2Fatc%2FB01AC06"
                    onClick={[Function]}
                  >
                    B01AC06
                  </a>
                </div>
              </td>
              <td
                className="not-active"
                colSpan={1}
              >
                <div
                  className="display-linebreak "
                >
                  <a
                    href="/MedicinalProductPackaging/http%3A%2F%2Flinked.opendata.cz%2Fresource%2Fsukl%2Fmedicinal-product-packaging%2F0151142"
                    onClick={[Function]}
                  >
                    30
                  </a>
                </div>
              </td>
              <td
                className="not-active"
                colSpan={1}
              >
                <div
                  className="display-linebreak "
                >
                  <a
                    href="/MedicinalProductPackaging/http%3A%2F%2Flinked.opendata.cz%2Fresource%2Fsukl%2Fmedicinal-product-packaging%2F0151142"
                    onClick={[Function]}
                  >
                    100MG
                  </a>
                </div>
              </td>
              <td
                className="not-active"
                colSpan={1}
              >
                <div
                  className="display-linebreak "
                >
                  
                </div>
              </td>
              <td
                className="not-active"
                colSpan={1}
              >
                <div
                  className="display-linebreak "
                >
                  
                </div>
              </td>
              <td
                className="not-active"
                colSpan={1}
              >
                <div
                  className="display-linebreak "
                >
                  <a
                    href="/MedicinalProductPackaging/http%3A%2F%2Flinked.opendata.cz%2Fresource%2Fsukl%2Fmedicinal-product-packaging%2F0151142"
                    onClick={[Function]}
                  >
                    Perorální podání
                  </a>
                </div>
              </td>
            </tr>
            <tr
              className="not-in-bussines"
            >
              <td
                className="not-active"
                colSpan={1}
              >
                <div
                  className="display-linebreak "
                >
                  <a
                    href="/MedicinalProductPackaging/http%3A%2F%2Flinked.opendata.cz%2Fresource%2Fsukl%2Fmedicinal-product-packaging%2F0200214"
                    onClick={[Function]}
                  >
                    Ne
                  </a>
                </div>
              </td>
              <td
                className="left"
                colSpan={1}
              >
                <div
                  className="display-linebreak "
                >
                  <a
                    href="/MedicinalProductPackaging/http%3A%2F%2Flinked.opendata.cz%2Fresource%2Fsukl%2Fmedicinal-product-packaging%2F0200214"
                    onClick={[Function]}
                  >
                    ANOPYRIN 100 MG TBL NOB 56X100MG
                  </a>
                </div>
              </td>
              <td
                className=""
                colSpan={1}
              >
                <div
                  className="display-linebreak "
                >
                  <a
                    href="/ATCConcept/http%3A%2F%2Flinked.opendata.cz%2Fresource%2Fatc%2FB01AC06"
                    onClick={[Function]}
                  >
                    B01AC06
                  </a>
                </div>
              </td>
              <td
                className="not-active"
                colSpan={1}
              >
                <div
                  className="display-linebreak "
                >
                  <a
                    href="/MedicinalProductPackaging/http%3A%2F%2Flinked.opendata.cz%2Fresource%2Fsukl%2Fmedicinal-product-packaging%2F0200214"
                    onClick={[Function]}
                  >
                    56
                  </a>
                </div>
              </td>
              <td
                className="not-active"
                colSpan={1}
              >
                <div
                  className="display-linebreak "
                >
                  <a
                    href="/MedicinalProductPackaging/http%3A%2F%2Flinked.opendata.cz%2Fresource%2Fsukl%2Fmedicinal-product-packaging%2F0200214"
                    onClick={[Function]}
                  >
                    100MG
                  </a>
                </div>
              </td>
              <td
                className="not-active"
                colSpan={1}
              >
                <div
                  className="display-linebreak "
                >
                  
                </div>
              </td>
              <td
                className="not-active"
                colSpan={1}
              >
                <div
                  className="display-linebreak "
                >
                  
                </div>
              </td>
              <td
                className="not-active"
                colSpan={1}
              >
                <div
                  className="display-linebreak "
                >
                  <a
                    href="/MedicinalProductPackaging/http%3A%2F%2Flinked.opendata.cz%2Fresource%2Fsukl%2Fmedicinal-product-packaging%2F0200214"
                    onClick={[Function]}
                  >
                    Perorální podání
                  </a>
                </div>
              </td>
            </tr>
            <tr
              className="not-in-bussines"
            >
              <td
                className="not-active"
                colSpan={1}
              >
                <div
                  className="display-linebreak "
                >
                  <a
                    href="/MedicinalProductPackaging/http%3A%2F%2Flinked.opendata.cz%2Fresource%2Fsukl%2Fmedicinal-product-packaging%2F0071960"
                    onClick={[Function]}
                  >
                    Ne
                  </a>
                </div>
              </td>
              <td
                className="left"
                colSpan={1}
              >
                <div
                  className="display-linebreak "
                >
                  <a
                    href="/MedicinalProductPackaging/http%3A%2F%2Flinked.opendata.cz%2Fresource%2Fsukl%2Fmedicinal-product-packaging%2F0071960"
                    onClick={[Function]}
                  >
                    ANOPYRIN 100 MG TBL NOB 5X10X100MG
                  </a>
                </div>
              </td>
              <td
                className=""
                colSpan={1}
              >
                <div
                  className="display-linebreak "
                >
                  <a
                    href="/ATCConcept/http%3A%2F%2Flinked.opendata.cz%2Fresource%2Fatc%2FB01AC06"
                    onClick={[Function]}
                  >
                    B01AC06
                  </a>
                </div>
              </td>
              <td
                className="not-active"
                colSpan={1}
              >
                <div
                  className="display-linebreak "
                >
                  <a
                    href="/MedicinalProductPackaging/http%3A%2F%2Flinked.opendata.cz%2Fresource%2Fsukl%2Fmedicinal-product-packaging%2F0071960"
                    onClick={[Function]}
                  >
                    5X10
                  </a>
                </div>
              </td>
              <td
                className="not-active"
                colSpan={1}
              >
                <div
                  className="display-linebreak "
                >
                  <a
                    href="/MedicinalProductPackaging/http%3A%2F%2Flinked.opendata.cz%2Fresource%2Fsukl%2Fmedicinal-product-packaging%2F0071960"
                    onClick={[Function]}
                  >
                    100MG
                  </a>
                </div>
              </td>
              <td
                className="not-active"
                colSpan={1}
              >
                <div
                  className="display-linebreak "
                >
                  
                </div>
              </td>
              <td
                className="not-active"
                colSpan={1}
              >
                <div
                  className="display-linebreak "
                >
                  
                </div>
              </td>
              <td
                className="not-active"
                colSpan={1}
              >
                <div
                  className="display-linebreak "
                >
                  <a
                    href="/MedicinalProductPackaging/http%3A%2F%2Flinked.opendata.cz%2Fresource%2Fsukl%2Fmedicinal-product-packaging%2F0071960"
                    onClick={[Function]}
                  >
                    Perorální podání
                  </a>
                </div>
              </td>
            </tr>
          </tbody>
        </table>
      </div>
    </div>
  </div>
</div>
`;

exports[`MedicinalProduct renders correctly when document some documents did not load 1`] = `
<div>
  <div
    className="title not-found not-found-title"
  >
    Error 404
  </div>
  <div
    className="not-found title"
  >
    Je nám líto, ale stránka nebyla nalezena.
  </div>
</div>
`;

exports[`MedicinalProduct renders correctly when loading 1`] = `
<div
  className="page-spinner"
>
  <div
    className="sk-fade-in sk-spinner ball-spin-fade-loader"
    color="#3ea898"
    style={
      Object {
        "color": "#3ea898",
      }
    }
  >
    <div />
    <div />
    <div />
    <div />
    <div />
    <div />
    <div />
    <div />
  </div>
</div>
`;
