// Jest Snapshot v1, https://goo.gl/fbAQLP

exports[`Medication renders correctly when data loaded 1`] = `
<div>
  <div
    className="row col-xs-12 title"
  >
    Medikace
  </div>
  <div
    className="route-buttons col-xs-12 row drug-row"
  />
  <div>
    <div
      className="row col-xs-12 medication-desc"
    >
      <div
        class="medication-desc"
      >
        Zde si můžete nastavit vlastní medikaci.
        <br />
        <br />
        <div
          class="notification-desc"
        >
           Notifikace
        </div>
         - Pro fungování notifikací medikace je potřeba nainstalovat prohlížečové rozšíření (
        <div
          class="bold"
        >
          po instalaci stránku obnovte - zmáčkněte F5 
        </div>
        ):
      </div>
       
      <a
        href="https://chrome.google.com/webstore/detail/l%C3%A9kov%C3%A1-encyclopedie-medik/hmlmblbhfmjddejiljgackhlhondibao"
        target="_blank"
      >
        Google Chrome
      </a>
      ,
       
      <a
        href="https://addons.mozilla.org/en-US/firefox/addon/le-medikace-demo/"
        target="_blank"
      >
        Firefox
      </a>
      .
    </div>
    <div>
      <div>
        <div
          className="row col-xs-12"
        >
          <ul
            className="mdc-list"
          >
            <li
              className="mdc-list-item"
              style={
                Object {
                  "cursor": "auto",
                  "width": "100%",
                }
              }
            >
              <span
                className="mdc-list-item__text"
                style={
                  Object {
                    "width": "100%",
                  }
                }
              >
                <div
                  className="success bold"
                >
                  Ve vaší medikaci nebyly nalazeny žádné interakce.
                </div>
              </span>
            </li>
            <li
              className="mdc-list-item"
              style={
                Object {
                  "cursor": "auto",
                }
              }
            >
              <span
                className="mdc-list-item__text"
              >
                <span
                  className="mdc-list-item__secondary-text"
                >
                  Řadit dle
                </span>
                <select
                  className="form-control history-form"
                  defaultValue="title"
                  onChange={[Function]}
                  style={
                    Object {
                      "marginBottom": "2px",
                    }
                  }
                  title="Typ"
                >
                  <option
                    value="key"
                  >
                    Datum přidání
                  </option>
                  <option
                    value="title"
                  >
                    Název
                  </option>
                  <option
                    value="date"
                  >
                    Příští dávka
                  </option>
                </select>
              </span>
              <span
                className="mdc-list-item__meta"
              >
                <button
                  className="button-no-border fa-button fa-plus"
                  onClick={[Function]}
                  type="button"
                >
                  <svg
                    aria-hidden="true"
                    className="svg-inline--fa fa-plus fa-w-14 "
                    data-icon="plus"
                    data-prefix="fas"
                    role="img"
                    style={Object {}}
                    viewBox="0 0 448 512"
                    xmlns="http://www.w3.org/2000/svg"
                  >
                    <path
                      d="M416 208H272V64c0-17.67-14.33-32-32-32h-32c-17.67 0-32 14.33-32 32v144H32c-17.67 0-32 14.33-32 32v32c0 17.67 14.33 32 32 32h144v144c0 17.67 14.33 32 32 32h32c17.67 0 32-14.33 32-32V304h144c17.67 0 32-14.33 32-32v-32c0-17.67-14.33-32-32-32z"
                      fill="currentColor"
                      style={Object {}}
                    />
                  </svg>
                </button>
              </span>
            </li>
            <li
              className="mdc-list-divider"
              role="separator"
            />
            <div
              className="list-link"
            >
              <div
                onClick={[Function]}
              >
                <li
                  className="mdc-list-item"
                >
                  <span
                    className="mdc-list-item__text"
                  >
                    <button
                      className="link-button"
                      disabled={false}
                      onClick={[Function]}
                    >
                      ASDUTER 10 MG TABLETY
                    </button>
                    <span
                      className="mdc-list-item__secondary-text"
                      style={null}
                    >
                      2018-11-21 21:30:55
                    </span>
                  </span>
                  <span
                    className="mdc-list-item__meta"
                  >
                    <button
                      className="button-no-border fa-button fa-pdf"
                      disabled={false}
                      onClick={[Function]}
                      type="button"
                    >
                      <svg
                        aria-hidden="true"
                        className="svg-inline--fa fa-file-pdf fa-w-12 "
                        data-icon="file-pdf"
                        data-prefix="fas"
                        role="img"
                        style={Object {}}
                        viewBox="0 0 384 512"
                        xmlns="http://www.w3.org/2000/svg"
                      >
                        <path
                          d="M181.9 256.1c-5-16-4.9-46.9-2-46.9 8.4 0 7.6 36.9 2 46.9zm-1.7 47.2c-7.7 20.2-17.3 43.3-28.4 62.7 18.3-7 39-17.2 62.9-21.9-12.7-9.6-24.9-23.4-34.5-40.8zM86.1 428.1c0 .8 13.2-5.4 34.9-40.2-6.7 6.3-29.1 24.5-34.9 40.2zM248 160h136v328c0 13.3-10.7 24-24 24H24c-13.3 0-24-10.7-24-24V24C0 10.7 10.7 0 24 0h200v136c0 13.2 10.8 24 24 24zm-8 171.8c-20-12.2-33.3-29-42.7-53.8 4.5-18.5 11.6-46.6 6.2-64.2-4.7-29.4-42.4-26.5-47.8-6.8-5 18.3-.4 44.1 8.1 77-11.6 27.6-28.7 64.6-40.8 85.8-.1 0-.1.1-.2.1-27.1 13.9-73.6 44.5-54.5 68 5.6 6.9 16 10 21.5 10 17.9 0 35.7-18 61.1-61.8 25.8-8.5 54.1-19.1 79-23.2 21.7 11.8 47.1 19.5 64 19.5 29.2 0 31.2-32 19.7-43.4-13.9-13.6-54.3-9.7-73.6-7.2zM377 105L279 7c-4.5-4.5-10.6-7-17-7h-6v128h128v-6.1c0-6.3-2.5-12.4-7-16.9zm-74.1 255.3c4.1-2.7-2.5-11.9-42.8-9 37.1 15.8 42.8 9 42.8 9z"
                          fill="currentColor"
                          style={Object {}}
                        />
                      </svg>
                    </button>
                    <button
                      className="button-no-border fa-button fa-edit"
                      onClick={[Function]}
                      type="button"
                    >
                      <svg
                        aria-hidden="true"
                        className="svg-inline--fa fa-edit fa-w-18 "
                        data-icon="edit"
                        data-prefix="fas"
                        role="img"
                        style={Object {}}
                        viewBox="0 0 576 512"
                        xmlns="http://www.w3.org/2000/svg"
                      >
                        <path
                          d="M402.6 83.2l90.2 90.2c3.8 3.8 3.8 10 0 13.8L274.4 405.6l-92.8 10.3c-12.4 1.4-22.9-9.1-21.5-21.5l10.3-92.8L388.8 83.2c3.8-3.8 10-3.8 13.8 0zm162-22.9l-48.8-48.8c-15.2-15.2-39.9-15.2-55.2 0l-35.4 35.4c-3.8 3.8-3.8 10 0 13.8l90.2 90.2c3.8 3.8 10 3.8 13.8 0l35.4-35.4c15.2-15.3 15.2-40 0-55.2zM384 346.2V448H64V128h229.8c3.2 0 6.2-1.3 8.5-3.5l40-40c7.6-7.6 2.2-20.5-8.5-20.5H48C21.5 64 0 85.5 0 112v352c0 26.5 21.5 48 48 48h352c26.5 0 48-21.5 48-48V306.2c0-10.7-12.9-16-20.5-8.5l-40 40c-2.2 2.3-3.5 5.3-3.5 8.5z"
                          fill="currentColor"
                          style={Object {}}
                        />
                      </svg>
                    </button>
                    <button
                      className="button-no-border fa-button fa-trash"
                      onClick={[Function]}
                      type="button"
                    >
                      <svg
                        aria-hidden="true"
                        className="svg-inline--fa fa-trash-alt fa-w-14 "
                        data-icon="trash-alt"
                        data-prefix="fas"
                        role="img"
                        style={Object {}}
                        viewBox="0 0 448 512"
                        xmlns="http://www.w3.org/2000/svg"
                      >
                        <path
                          d="M0 84V56c0-13.3 10.7-24 24-24h112l9.4-18.7c4-8.2 12.3-13.3 21.4-13.3h114.3c9.1 0 17.4 5.1 21.5 13.3L312 32h112c13.3 0 24 10.7 24 24v28c0 6.6-5.4 12-12 12H12C5.4 96 0 90.6 0 84zm416 56v324c0 26.5-21.5 48-48 48H80c-26.5 0-48-21.5-48-48V140c0-6.6 5.4-12 12-12h360c6.6 0 12 5.4 12 12zm-272 68c0-8.8-7.2-16-16-16s-16 7.2-16 16v224c0 8.8 7.2 16 16 16s16-7.2 16-16V208zm96 0c0-8.8-7.2-16-16-16s-16 7.2-16 16v224c0 8.8 7.2 16 16 16s16-7.2 16-16V208zm96 0c0-8.8-7.2-16-16-16s-16 7.2-16 16v224c0 8.8 7.2 16 16 16s16-7.2 16-16V208z"
                          fill="currentColor"
                          style={Object {}}
                        />
                      </svg>
                    </button>
                  </span>
                </li>
                <div
                  className="dropped-list fa-dropdown"
                >
                  <button
                    className="button-no-border fa-button"
                    onClick={[Function]}
                    style={
                      Object {
                        "color": "gray",
                      }
                    }
                    type="button"
                  >
                    <svg
                      aria-hidden="true"
                      className="svg-inline--fa fa-angle-down fa-w-10 "
                      data-icon="angle-down"
                      data-prefix="fas"
                      role="img"
                      style={Object {}}
                      viewBox="0 0 320 512"
                      xmlns="http://www.w3.org/2000/svg"
                    >
                      <path
                        d="M143 352.3L7 216.3c-9.4-9.4-9.4-24.6 0-33.9l22.6-22.6c9.4-9.4 24.6-9.4 33.9 0l96.4 96.4 96.4-96.4c9.4-9.4 24.6-9.4 33.9 0l22.6 22.6c9.4 9.4 9.4 24.6 0 33.9l-136 136c-9.2 9.4-24.4 9.4-33.8 0z"
                        fill="currentColor"
                        style={Object {}}
                      />
                    </svg>
                  </button>
                </div>
              </div>
            </div>
            <div
              className="list-link"
            >
              <div
                onClick={[Function]}
              >
                <li
                  className="mdc-list-item"
                >
                  <span
                    className="mdc-list-item__text"
                  >
                    <button
                      className="link-button"
                      disabled={false}
                      onClick={[Function]}
                    >
                      ASDUTER 20 MG TABLETY
                    </button>
                    <span
                      className="mdc-list-item__secondary-text"
                      style={null}
                    >
                      2018-11-21 21:30:55
                    </span>
                  </span>
                  <span
                    className="mdc-list-item__meta"
                  >
                    <button
                      className="button-no-border fa-button fa-pdf"
                      disabled={false}
                      onClick={[Function]}
                      type="button"
                    >
                      <svg
                        aria-hidden="true"
                        className="svg-inline--fa fa-file-pdf fa-w-12 "
                        data-icon="file-pdf"
                        data-prefix="fas"
                        role="img"
                        style={Object {}}
                        viewBox="0 0 384 512"
                        xmlns="http://www.w3.org/2000/svg"
                      >
                        <path
                          d="M181.9 256.1c-5-16-4.9-46.9-2-46.9 8.4 0 7.6 36.9 2 46.9zm-1.7 47.2c-7.7 20.2-17.3 43.3-28.4 62.7 18.3-7 39-17.2 62.9-21.9-12.7-9.6-24.9-23.4-34.5-40.8zM86.1 428.1c0 .8 13.2-5.4 34.9-40.2-6.7 6.3-29.1 24.5-34.9 40.2zM248 160h136v328c0 13.3-10.7 24-24 24H24c-13.3 0-24-10.7-24-24V24C0 10.7 10.7 0 24 0h200v136c0 13.2 10.8 24 24 24zm-8 171.8c-20-12.2-33.3-29-42.7-53.8 4.5-18.5 11.6-46.6 6.2-64.2-4.7-29.4-42.4-26.5-47.8-6.8-5 18.3-.4 44.1 8.1 77-11.6 27.6-28.7 64.6-40.8 85.8-.1 0-.1.1-.2.1-27.1 13.9-73.6 44.5-54.5 68 5.6 6.9 16 10 21.5 10 17.9 0 35.7-18 61.1-61.8 25.8-8.5 54.1-19.1 79-23.2 21.7 11.8 47.1 19.5 64 19.5 29.2 0 31.2-32 19.7-43.4-13.9-13.6-54.3-9.7-73.6-7.2zM377 105L279 7c-4.5-4.5-10.6-7-17-7h-6v128h128v-6.1c0-6.3-2.5-12.4-7-16.9zm-74.1 255.3c4.1-2.7-2.5-11.9-42.8-9 37.1 15.8 42.8 9 42.8 9z"
                          fill="currentColor"
                          style={Object {}}
                        />
                      </svg>
                    </button>
                    <button
                      className="button-no-border fa-button fa-edit"
                      onClick={[Function]}
                      type="button"
                    >
                      <svg
                        aria-hidden="true"
                        className="svg-inline--fa fa-edit fa-w-18 "
                        data-icon="edit"
                        data-prefix="fas"
                        role="img"
                        style={Object {}}
                        viewBox="0 0 576 512"
                        xmlns="http://www.w3.org/2000/svg"
                      >
                        <path
                          d="M402.6 83.2l90.2 90.2c3.8 3.8 3.8 10 0 13.8L274.4 405.6l-92.8 10.3c-12.4 1.4-22.9-9.1-21.5-21.5l10.3-92.8L388.8 83.2c3.8-3.8 10-3.8 13.8 0zm162-22.9l-48.8-48.8c-15.2-15.2-39.9-15.2-55.2 0l-35.4 35.4c-3.8 3.8-3.8 10 0 13.8l90.2 90.2c3.8 3.8 10 3.8 13.8 0l35.4-35.4c15.2-15.3 15.2-40 0-55.2zM384 346.2V448H64V128h229.8c3.2 0 6.2-1.3 8.5-3.5l40-40c7.6-7.6 2.2-20.5-8.5-20.5H48C21.5 64 0 85.5 0 112v352c0 26.5 21.5 48 48 48h352c26.5 0 48-21.5 48-48V306.2c0-10.7-12.9-16-20.5-8.5l-40 40c-2.2 2.3-3.5 5.3-3.5 8.5z"
                          fill="currentColor"
                          style={Object {}}
                        />
                      </svg>
                    </button>
                    <button
                      className="button-no-border fa-button fa-trash"
                      onClick={[Function]}
                      type="button"
                    >
                      <svg
                        aria-hidden="true"
                        className="svg-inline--fa fa-trash-alt fa-w-14 "
                        data-icon="trash-alt"
                        data-prefix="fas"
                        role="img"
                        style={Object {}}
                        viewBox="0 0 448 512"
                        xmlns="http://www.w3.org/2000/svg"
                      >
                        <path
                          d="M0 84V56c0-13.3 10.7-24 24-24h112l9.4-18.7c4-8.2 12.3-13.3 21.4-13.3h114.3c9.1 0 17.4 5.1 21.5 13.3L312 32h112c13.3 0 24 10.7 24 24v28c0 6.6-5.4 12-12 12H12C5.4 96 0 90.6 0 84zm416 56v324c0 26.5-21.5 48-48 48H80c-26.5 0-48-21.5-48-48V140c0-6.6 5.4-12 12-12h360c6.6 0 12 5.4 12 12zm-272 68c0-8.8-7.2-16-16-16s-16 7.2-16 16v224c0 8.8 7.2 16 16 16s16-7.2 16-16V208zm96 0c0-8.8-7.2-16-16-16s-16 7.2-16 16v224c0 8.8 7.2 16 16 16s16-7.2 16-16V208zm96 0c0-8.8-7.2-16-16-16s-16 7.2-16 16v224c0 8.8 7.2 16 16 16s16-7.2 16-16V208z"
                          fill="currentColor"
                          style={Object {}}
                        />
                      </svg>
                    </button>
                  </span>
                </li>
                <div
                  className="dropped-list fa-dropdown"
                >
                  <button
                    className="button-no-border fa-button"
                    onClick={[Function]}
                    style={
                      Object {
                        "color": "gray",
                      }
                    }
                    type="button"
                  >
                    <svg
                      aria-hidden="true"
                      className="svg-inline--fa fa-angle-down fa-w-10 "
                      data-icon="angle-down"
                      data-prefix="fas"
                      role="img"
                      style={Object {}}
                      viewBox="0 0 320 512"
                      xmlns="http://www.w3.org/2000/svg"
                    >
                      <path
                        d="M143 352.3L7 216.3c-9.4-9.4-9.4-24.6 0-33.9l22.6-22.6c9.4-9.4 24.6-9.4 33.9 0l96.4 96.4 96.4-96.4c9.4-9.4 24.6-9.4 33.9 0l22.6 22.6c9.4 9.4 9.4 24.6 0 33.9l-136 136c-9.2 9.4-24.4 9.4-33.8 0z"
                        fill="currentColor"
                        style={Object {}}
                      />
                    </svg>
                  </button>
                </div>
              </div>
            </div>
          </ul>
        </div>
      </div>
    </div>
  </div>
</div>
`;

exports[`Medication renders correctly when loading 1`] = `
<div>
  <div
    className="row col-xs-12 title"
  >
    Medikace
  </div>
  <div
    className="route-buttons col-xs-12 row drug-row"
  />
  <div>
    <div
      className="row col-xs-12 medication-desc"
    >
      <div
        class="medication-desc"
      >
        Zde si můžete nastavit vlastní medikaci.
        <br />
        <br />
        <div
          class="notification-desc"
        >
           Notifikace
        </div>
         - Pro fungování notifikací medikace je potřeba nainstalovat prohlížečové rozšíření (
        <div
          class="bold"
        >
          po instalaci stránku obnovte - zmáčkněte F5 
        </div>
        ):
      </div>
       
      <a
        href="https://chrome.google.com/webstore/detail/l%C3%A9kov%C3%A1-encyclopedie-medik/hmlmblbhfmjddejiljgackhlhondibao"
        target="_blank"
      >
        Google Chrome
      </a>
      ,
       
      <a
        href="https://addons.mozilla.org/en-US/firefox/addon/le-medikace-demo/"
        target="_blank"
      >
        Firefox
      </a>
      .
    </div>
    <div>
      <div>
        <div
          className="row col-xs-12"
        >
          <ul
            className="mdc-list"
          >
            <li
              className="mdc-list-item"
              style={
                Object {
                  "cursor": "auto",
                }
              }
            >
              <span
                className="mdc-list-item__text"
              >
                <span
                  className="mdc-list-item__secondary-text"
                >
                  Řadit dle
                </span>
                <select
                  className="form-control history-form"
                  defaultValue="title"
                  onChange={[Function]}
                  style={
                    Object {
                      "marginBottom": "2px",
                    }
                  }
                  title="Typ"
                >
                  <option
                    value="key"
                  >
                    Datum přidání
                  </option>
                  <option
                    value="title"
                  >
                    Název
                  </option>
                  <option
                    value="date"
                  >
                    Příští dávka
                  </option>
                </select>
              </span>
              <span
                className="mdc-list-item__meta"
              >
                <button
                  className="button-no-border fa-button fa-plus"
                  onClick={[Function]}
                  type="button"
                >
                  <svg
                    aria-hidden="true"
                    className="svg-inline--fa fa-plus fa-w-14 "
                    data-icon="plus"
                    data-prefix="fas"
                    role="img"
                    style={Object {}}
                    viewBox="0 0 448 512"
                    xmlns="http://www.w3.org/2000/svg"
                  >
                    <path
                      d="M416 208H272V64c0-17.67-14.33-32-32-32h-32c-17.67 0-32 14.33-32 32v144H32c-17.67 0-32 14.33-32 32v32c0 17.67 14.33 32 32 32h144v144c0 17.67 14.33 32 32 32h32c17.67 0 32-14.33 32-32V304h144c17.67 0 32-14.33 32-32v-32c0-17.67-14.33-32-32-32z"
                      fill="currentColor"
                      style={Object {}}
                    />
                  </svg>
                </button>
              </span>
            </li>
            <li
              className="mdc-list-divider"
              role="separator"
            />
            <div
              class="bold"
              style={
                Object {
                  "fontSize": "12px",
                  "paddingTop": "8px",
                  "textAlign": "center",
                }
              }
            >
              Zatím nemáte zadanou žádnou medikaci.
            </div>
          </ul>
        </div>
      </div>
    </div>
  </div>
</div>
`;
