// Jest Snapshot v1, https://goo.gl/fbAQLP

exports[`Search renders correctly when document is loaded 1`] = `
<div>
  <div
    className="row col-xs-12 title"
  >
    Výsledky vyhledávání: item
  </div>
  <div
    className="route-buttons col-xs-12 row drug-row"
  />
  <div
    className="row col-xs-12"
  >
    Nalezeno položek
    :
     
    3
  </div>
  <div>
    <div
      class="row"
    >
      <div
        className="col-xs-6 col-md-4 finding-list"
      >
        <div
          className="list-label"
        >
          Aktivní látky
        </div>
        <div
          className="normal-text"
        >
          <div>
            <a
              href="/ingredient/http%3A%2F%2Flinked.opendata.cz%2Fresource%2Fdrug-encyclopedia%2Fingredient%2FM0017141"
              onClick={[Function]}
            >
              <div>
                item1ingredient
              </div>
            </a>
          </div>
          <div>
            <a
              href="/ingredient/http%3A%2F%2Flinked.opendata.cz%2Fresource%2Fdrug-encyclopedia%2Fingredient%2FM0017148"
              onClick={[Function]}
            >
              <div>
                item2ingredient
              </div>
            </a>
          </div>
        </div>
      </div>
      <div
        className="col-xs-6 col-md-4 finding-list"
      >
        <div
          className="list-label"
        >
          Nálezy
        </div>
        <div
          className="normal-text"
        >
          <div>
            <a
              href="/diseaseOrFinding/http%3A%2F%2Flinked.opendata.cz%2Fresource%2Fndfrt%2Fdisease%2FN0000002449"
              onClick={[Function]}
            >
              <div>
                item3disease
              </div>
            </a>
          </div>
        </div>
      </div>
    </div>
  </div>
</div>
`;

exports[`Search renders correctly when document some documents did not load 1`] = `
<div
  className="page-spinner"
>
  <div
    className="sk-fade-in sk-spinner ball-spin-fade-loader"
    color="#3ea898"
    style={
      Object {
        "color": "#3ea898",
      }
    }
  >
    <div />
    <div />
    <div />
    <div />
    <div />
    <div />
    <div />
    <div />
  </div>
</div>
`;

exports[`Search renders correctly when loading 1`] = `
<div
  className="page-spinner"
>
  <div
    className="sk-fade-in sk-spinner ball-spin-fade-loader"
    color="#3ea898"
    style={
      Object {
        "color": "#3ea898",
      }
    }
  >
    <div />
    <div />
    <div />
    <div />
    <div />
    <div />
    <div />
    <div />
  </div>
</div>
`;
